<svg width="7" height="12" viewBox="0 0 7 12" fill="none" xmlns="http://www.w3.org/2000/svg">
<path d="M5.30005 11.3L0.700048 6.69999C0.600048 6.59999 0.529382 6.49165 0.488049 6.37499C0.446049 6.25832 0.425049 6.13332 0.425049 5.99999C0.425049 5.86665 0.446049 5.74165 0.488049 5.62499C0.529382 5.50832 0.600048 5.39999 0.700048 5.29999L5.30005 0.699987C5.48338 0.516654 5.71672 0.424988 6.00005 0.424988C6.28338 0.424988 6.51672 0.516654 6.70005 0.699987C6.88338 0.883321 6.97505 1.11665 6.97505 1.39999C6.97505 1.68332 6.88338 1.91665 6.70005 2.09999L2.80005 5.99999L6.70005 9.89999C6.88338 10.0833 6.97505 10.3167 6.97505 10.6C6.97505 10.8833 6.88338 11.1167 6.70005 11.3C6.51672 11.4833 6.28338 11.575 6.00005 11.575C5.71672 11.575 5.48338 11.4833 5.30005 11.3Z" fill="#FCFCFC"/>
</svg>
