<svg width="18" height="18" viewBox="0 0 18 18" fill="none" xmlns="http://www.w3.org/2000/svg">
<path opacity="0.5" fill-rule="evenodd" clip-rule="evenodd" d="M16.339 3.47904C16.8411 2.97693 16.8411 2.16286 16.339 1.66075C15.8369 1.15866 15.0228 1.15866 14.5207 1.66075L8.99989 7.18161L3.47904 1.66075C2.97693 1.15866 2.16286 1.15866 1.66075 1.66075C1.15866 2.16286 1.15866 2.97693 1.66075 3.47904L7.18161 8.99989L1.66075 14.5207C1.15866 15.0228 1.15866 15.8369 1.66075 16.339C2.16286 16.8411 2.97693 16.8411 3.47904 16.339L8.99989 10.8182L14.5207 16.339C15.0228 16.8411 15.8369 16.8411 16.339 16.339C16.8411 15.8369 16.8411 15.0228 16.339 14.5207L10.8182 8.99989L16.339 3.47904Z" fill="white"/>
</svg>
